Task5Košice
…
# A tibble: 3 × 2
  species    avg_sepal_length
  <chr>                 <dbl>
1 virginica              6.59
2 versicolor             5.94
3 setosa                 5.01

Question 2 Select only sepal-related measurements.

my_real_data %>%
  select(`sepal length (cm)`, `sepal width (cm)`)

# A tibble: 150 × 2
   `sepal length (cm)` `sepal width (cm)`
                 <dbl>              <dbl>
 1                 5.1                3.5
 2                 4.9                3  
 3                 4.7                3.2
 4                 4.6                3.1
 5                 5                  3.6
 6                 5.4                3.9
 7                 4.6                3.4
 8                 5                  3.4
 9                 4.4                2.9
10                 4.9                3.1
# ℹ 140 more rows

Question 3 Filter flowers with petal length greater than 5 cm.

my_real_data %>%
  filter(`petal length (cm)` > 5) %>%
  select(species, `petal length (cm)`)

# A tibble: 42 × 2
   species    `petal length (cm)`
   <chr>                    <dbl>
 1 versicolor                 5.1
 2 virginica                  6  
 3 virginica                  5.1
 4 virginica                  5.9
 5 virginica                  5.6
 6 virginica                  5.8
 7 virginica                  6.6
 8 virginica                  6.3
 9 virginica                  5.8
10 virginica                  6.1
# ℹ 32 more rows

Question 4 Sort the dataset by petal width in descending order.

my_real_data %>%
  arrange(desc(`petal width (cm)`))

# A tibble: 150 × 5
   `sepal length (cm)` `sepal width (cm)` `petal length (cm)` `petal width (cm)`
                 <dbl>              <dbl>               <dbl>              <dbl>
 1                 6.3                3.3                 6                  2.5
 2                 7.2                3.6                 6.1                2.5
 3                 6.7                3.3                 5.7                2.5
 4                 5.8                2.8                 5.1                2.4
 5                 6.3                3.4                 5.6                2.4
 6                 6.7                3.1                 5.6                2.4
 7                 6.4                3.2                 5.3                2.3
 8                 7.7                2.6                 6.9                2.3
 9                 6.9                3.2                 5.7                2.3
10                 7.7                3                   6.1                2.3
# ℹ 140 more rows
# ℹ 1 more variable: species <chr>

Question 5 Create a new column: sepal_ratio = sepal_length / sepal_width.

my_real_data %>%
  mutate(sepal_ratio = `sepal length (cm)` / `sepal width (cm)`) %>%
  select(species, `sepal length (cm)`, `sepal width (cm)`, sepal_ratio)

# A tibble: 150 × 4
   species `sepal length (cm)` `sepal width (cm)` sepal_ratio
   <chr>                 <dbl>              <dbl>       <dbl>
 1 setosa                  5.1                3.5        1.46
 2 setosa                  4.9                3          1.63
 3 setosa                  4.7                3.2        1.47
 4 setosa                  4.6                3.1        1.48
 5 setosa                  5                  3.6        1.39
 6 setosa                  5.4                3.9        1.38
 7 setosa                  4.6                3.4        1.35
 8 setosa                  5                  3.4        1.47
 9 setosa                  4.4                2.9        1.52
10 setosa                  4.9                3.1        1.58
# ℹ 140 more rows
…
ℹ Use `spec()` to retrieve the full column specification for this data.
ℹ Specify the column types or set `show_col_types = FALSE` to quiet this message.

--- Data Loaded Successfully ---
Rows: 150
Columns: 5
$ `sepal length (cm)` <dbl> 5.1, 4.9, 4.7, 4.6, 5.0, 5.4, 4.6, 5.0, 4.4, 4.9, …
$ `sepal width (cm)`  <dbl> 3.5, 3.0, 3.2, 3.1, 3.6, 3.9, 3.4, 3.4, 2.9, 3.1, …
$ `petal length (cm)` <dbl> 1.4, 1.4, 1.3, 1.5, 1.4, 1.7, 1.4, 1.5, 1.4, 1.5, …
$ `petal width (cm)`  <dbl> 0.2, 0.2, 0.2, 0.2, 0.2, 0.4, 0.3, 0.2, 0.2, 0.1, …
$ species             <chr> "setosa", "setosa", "setosa", "setosa", "setosa", …
# A tibble: 150 × 5
   `sepal length (cm)` `sepal width (cm)` `petal length (cm)` `petal width (cm)`
                 <dbl>              <dbl>               <dbl>              <dbl>
 1                 5.1                3.5                 1.4                0.2
 2                 4.9                3                   1.4                0.2
 3                 4.7                3.2                 1.3                0.2
 4                 4.6                3.1                 1.5                0.2
 5                 5                  3.6                 1.4                0.2
 6                 5.4                3.9                 1.7                0.4
 7                 4.6                3.4                 1.4                0.3
 8                 5                  3.4                 1.5                0.2
 9                 4.4                2.9                 1.4                0.2
10                 4.9                3.1                 1.5                0.1
# ℹ 140 more rows
# ℹ 1 more variable: species <chr>
…
4.3 Query Function

filter_by_petal_length <- function(data, threshold) {
  result <- data %>%
    filter(`petal length (cm)` > threshold) %>%
    select(species, `petal length (cm)`)
  
  return(result)
}

flowers_over_5 <- filter_by_petal_length(my_data, 5)
flowers_over_5

# A tibble: 42 × 2
   species    `petal length (cm)`
   <chr>                    <dbl>
 1 versicolor                 5.1
 2 virginica                  6  
 3 virginica                  5.1
 4 virginica                  5.9
 5 virginica                  5.6
 6 virginica                  5.8
 7 virginica                  6.6
 8 virginica                  6.3
 9 virginica                  5.8
10 virginica                  6.1
# ℹ 32 more rows
…
ℹ Use `spec()` to retrieve the full column specification for this data.
ℹ Specify the column types or set `show_col_types = FALSE` to quiet this message.

--- Data Loaded Successfully ---
Rows: 150
Columns: 5
$ `sepal length (cm)` <dbl> 5.1, 4.9, 4.7, 4.6, 5.0, 5.4, 4.6, 5.0, 4.4, 4.9, …
$ `sepal width (cm)`  <dbl> 3.5, 3.0, 3.2, 3.1, 3.6, 3.9, 3.4, 3.4, 2.9, 3.1, …
$ `petal length (cm)` <dbl> 1.4, 1.4, 1.3, 1.5, 1.4, 1.7, 1.4, 1.5, 1.4, 1.5, …
$ `petal width (cm)`  <dbl> 0.2, 0.2, 0.2, 0.2, 0.2, 0.4, 0.3, 0.2, 0.2, 0.1, …
$ species             <chr> "setosa", "setosa", "setosa", "setosa", "setosa", …
# A tibble: 150 × 5
   `sepal length (cm)` `sepal width (cm)` `petal length (cm)` `petal width (cm)`
                 <dbl>              <dbl>               <dbl>              <dbl>
 1                 5.1                3.5                 1.4                0.2
 2                 4.9                3                   1.4                0.2
 3                 4.7                3.2                 1.3                0.2
 4                 4.6                3.1                 1.5                0.2
 5                 5                  3.6                 1.4                0.2
 6                 5.4                3.9                 1.7                0.4
 7                 4.6                3.4                 1.4                0.3
 8                 5                  3.4                 1.5                0.2
 9                 4.4                2.9                 1.4                0.2
10                 4.9                3.1                 1.5                0.1
# ℹ 140 more rows
# ℹ 1 more variable: species <chr>
…
